{
  "swagger" : "2.0",
  "info" : {
    "description" : "This is a sample for swagger-maven-plugin",
    "version" : "v1",
    "title" : "Swagger Maven Plugin Sample",
    "termsOfService" : "http://www.volnenko.ru",
    "contact" : {
      "name" : "Bakhtiyarov Ruslan",
      "url" : "http://www.ruslan.ru",
      "email" : "ruslan@super.ru"
    },
    "license" : {
      "name" : "Apache 2.0",
      "url" : "http://www.apache.org/licenses/LICENSE-2.0.html"
    }
  },
  "host" : "localhost:8080",
  "schemes" : [ "http", "https" ],
  "paths" : {
    "/rest/project/create" : {
      "post" : {
        "operationId" : "create",
        "produces" : [ "application/json" ],
        "parameters" : [ {
          "in" : "body",
          "name" : "body",
          "required" : false,
          "schema" : {
            "$ref" : "#/definitions/ProjectDTO"
          }
        } ],
        "responses" : {
          "200" : {
            "description" : "successful operation",
            "schema" : {
              "$ref" : "#/definitions/Project"
            }
          }
        }
      }
    },
    "/rest/project/findAll" : {
      "get" : {
        "operationId" : "findAll",
        "produces" : [ "application/json" ],
        "responses" : {
          "200" : {
            "description" : "successful operation",
            "schema" : {
              "type" : "array",
              "items" : {
                "$ref" : "#/definitions/ProjectDTO"
              }
            }
          }
        }
      }
    },
    "/rest/project/findById/{id}" : {
      "get" : {
        "operationId" : "findById",
        "produces" : [ "application/json" ],
        "parameters" : [ {
          "name" : "id",
          "in" : "path",
          "required" : true,
          "type" : "string"
        } ],
        "responses" : {
          "200" : {
            "description" : "successful operation",
            "schema" : {
              "$ref" : "#/definitions/ProjectDTO"
            }
          }
        }
      }
    },
    "/rest/project/removeById/{id}" : {
      "delete" : {
        "operationId" : "removeOneById",
        "parameters" : [ {
          "name" : "id",
          "in" : "path",
          "required" : true,
          "type" : "string"
        } ],
        "responses" : {
          "default" : {
            "description" : "successful operation"
          }
        }
      }
    },
    "/rest/project/updateById" : {
      "put" : {
        "operationId" : "updateProjectById",
        "produces" : [ "application/json" ],
        "parameters" : [ {
          "in" : "body",
          "name" : "body",
          "required" : false,
          "schema" : {
            "$ref" : "#/definitions/ProjectDTO"
          }
        } ],
        "responses" : {
          "200" : {
            "description" : "successful operation",
            "schema" : {
              "$ref" : "#/definitions/ProjectDTO"
            }
          }
        }
      }
    },
    "/rest/task/create" : {
      "post" : {
        "operationId" : "create",
        "produces" : [ "application/json" ],
        "parameters" : [ {
          "in" : "body",
          "name" : "body",
          "required" : false,
          "schema" : {
            "$ref" : "#/definitions/TaskDTO"
          }
        } ],
        "responses" : {
          "200" : {
            "description" : "successful operation",
            "schema" : {
              "$ref" : "#/definitions/Task"
            }
          }
        }
      }
    },
    "/rest/task/findAll" : {
      "get" : {
        "operationId" : "findAll",
        "produces" : [ "application/json" ],
        "responses" : {
          "200" : {
            "description" : "successful operation",
            "schema" : {
              "type" : "array",
              "items" : {
                "$ref" : "#/definitions/TaskDTO"
              }
            }
          }
        }
      }
    },
    "/rest/task/findById/{id}" : {
      "get" : {
        "operationId" : "findById",
        "produces" : [ "application/json" ],
        "parameters" : [ {
          "name" : "id",
          "in" : "path",
          "required" : true,
          "type" : "string"
        } ],
        "responses" : {
          "200" : {
            "description" : "successful operation",
            "schema" : {
              "$ref" : "#/definitions/TaskDTO"
            }
          }
        }
      }
    },
    "/rest/task/removeById/{id}" : {
      "delete" : {
        "operationId" : "removeOneById",
        "parameters" : [ {
          "name" : "id",
          "in" : "path",
          "required" : true,
          "type" : "string"
        } ],
        "responses" : {
          "default" : {
            "description" : "successful operation"
          }
        }
      }
    },
    "/rest/task/updateById" : {
      "put" : {
        "operationId" : "updateTaskById",
        "produces" : [ "application/json" ],
        "parameters" : [ {
          "in" : "body",
          "name" : "body",
          "required" : false,
          "schema" : {
            "$ref" : "#/definitions/TaskDTO"
          }
        } ],
        "responses" : {
          "200" : {
            "description" : "successful operation",
            "schema" : {
              "$ref" : "#/definitions/TaskDTO"
            }
          }
        }
      }
    }
  },
  "securityDefinitions" : {
    "basicAuth" : {
      "type" : "basic"
    }
  },
  "definitions" : {
    "Project" : {
      "type" : "object",
      "properties" : {
        "id" : {
          "type" : "string"
        },
        "name" : {
          "type" : "string"
        },
        "description" : {
          "type" : "string"
        },
        "status" : {
          "type" : "string",
          "enum" : [ "NOT_STARTED", "IN_PROGRESS", "COMPLETED" ]
        },
        "startDate" : {
          "type" : "string",
          "format" : "date-time"
        },
        "finishDate" : {
          "type" : "string",
          "format" : "date-time"
        },
        "user" : {
          "$ref" : "#/definitions/User"
        },
        "tasks" : {
          "type" : "array",
          "items" : {
            "$ref" : "#/definitions/Task"
          }
        }
      }
    },
    "ProjectDTO" : {
      "type" : "object",
      "properties" : {
        "id" : {
          "type" : "string"
        },
        "name" : {
          "type" : "string"
        },
        "description" : {
          "type" : "string"
        },
        "userId" : {
          "type" : "string"
        },
        "startDate" : {
          "type" : "string",
          "format" : "date-time"
        },
        "finishDate" : {
          "type" : "string",
          "format" : "date-time"
        },
        "status" : {
          "type" : "string",
          "enum" : [ "NOT_STARTED", "IN_PROGRESS", "COMPLETED" ]
        }
      }
    },
    "Task" : {
      "type" : "object",
      "properties" : {
        "id" : {
          "type" : "string"
        },
        "name" : {
          "type" : "string"
        },
        "description" : {
          "type" : "string"
        },
        "status" : {
          "type" : "string",
          "enum" : [ "NOT_STARTED", "IN_PROGRESS", "COMPLETED" ]
        },
        "startDate" : {
          "type" : "string",
          "format" : "date-time"
        },
        "finishDate" : {
          "type" : "string",
          "format" : "date-time"
        },
        "user" : {
          "$ref" : "#/definitions/User"
        },
        "project" : {
          "$ref" : "#/definitions/Project"
        }
      }
    },
    "TaskDTO" : {
      "type" : "object",
      "properties" : {
        "id" : {
          "type" : "string"
        },
        "name" : {
          "type" : "string"
        },
        "description" : {
          "type" : "string"
        },
        "userId" : {
          "type" : "string"
        },
        "startDate" : {
          "type" : "string",
          "format" : "date-time"
        },
        "finishDate" : {
          "type" : "string",
          "format" : "date-time"
        },
        "status" : {
          "type" : "string",
          "enum" : [ "NOT_STARTED", "IN_PROGRESS", "COMPLETED" ]
        }
      }
    },
    "User" : {
      "type" : "object",
      "properties" : {
        "id" : {
          "type" : "string"
        },
        "login" : {
          "type" : "string"
        },
        "passwordHash" : {
          "type" : "string"
        },
        "email" : {
          "type" : "string"
        },
        "firstName" : {
          "type" : "string"
        },
        "lastName" : {
          "type" : "string"
        },
        "middleName" : {
          "type" : "string"
        },
        "role" : {
          "type" : "string",
          "enum" : [ "USER", "ADMIN" ]
        },
        "locked" : {
          "type" : "boolean"
        },
        "projects" : {
          "type" : "array",
          "items" : {
            "$ref" : "#/definitions/Project"
          }
        },
        "tasks" : {
          "type" : "array",
          "items" : {
            "$ref" : "#/definitions/Task"
          }
        },
        "sessions" : {
          "type" : "array",
          "items" : {
            "$ref" : "#/definitions/Task"
          }
        }
      }
    }
  }
}